<?xml version="1.0" encoding="utf-8"?>
<!-- Generator: Adobe Illustrator 22.1.0, SVG Export Plug-In . SVG Version: 6.00 Build 0)  -->
<svg version="1.1" id="Layer_1" xmlns="http://www.w3.org/2000/svg" xmlns:xlink="http://www.w3.org/1999/xlink" x="0px" y="0px"
	 viewBox="0 0 1366 128.4" style="enable-background:new 0 0 1366 128.4;" xml:space="preserve">
<style type="text/css">
	.st0{fill:url(#SVGID_1_);}
	.st1{fill:#1F155E;}
</style>
<linearGradient id="SVGID_1_" gradientUnits="userSpaceOnUse" x1="-2.125" y1="230.8508" x2="1368.125" y2="230.8508" gradientTransform="matrix(1 0 0 1 0 -161)">
	<stop  offset="0.1173" style="stop-color:#AF782B"/>
	<stop  offset="0.1656" style="stop-color:#B17C2D"/>
	<stop  offset="0.2086" style="stop-color:#B88635"/>
	<stop  offset="0.2497" style="stop-color:#C39942"/>
	<stop  offset="0.2895" style="stop-color:#D3B254"/>
	<stop  offset="0.3281" style="stop-color:#E7D36B"/>
	<stop  offset="0.3563" style="stop-color:#F9F07F"/>
	<stop  offset="0.3572" style="stop-color:#F8EF7E"/>
	<stop  offset="0.3883" style="stop-color:#E3CA61"/>
	<stop  offset="0.4193" style="stop-color:#D2AD4A"/>
	<stop  offset="0.4501" style="stop-color:#C79939"/>
	<stop  offset="0.4805" style="stop-color:#BF8C2F"/>
	<stop  offset="0.51" style="stop-color:#BD882C"/>
	<stop  offset="0.5465" style="stop-color:#CA9833"/>
	<stop  offset="0.6453" style="stop-color:#EBC144"/>
	<stop  offset="0.6965" style="stop-color:#F7D04B"/>
	<stop  offset="0.7743" style="stop-color:#D3A43B"/>
	<stop  offset="0.8396" style="stop-color:#BA852F"/>
	<stop  offset="0.8763" style="stop-color:#B17A2B"/>
</linearGradient>
<path class="st0" d="M-2.1,57.5c0,0,114.4-46.4,319-46.4s550.8,96.5,763.5,96.5s287.8-25.1,287.8-25.1v46H-2.1V57.5z"/>
<path class="st1" d="M-2.1,87.8c0,0,102.3-43.2,313.9-43.2s519.5,76.5,734.2,76.5c196.6,0,322.1-35.4,322.1-35.4v42.9H-2.1V87.8z"/>
</svg>
