<?xml version="1.0" encoding="utf-8"?>
<!-- Generator: Adobe Illustrator 22.1.0, SVG Export Plug-In . SVG Version: 6.00 Build 0)  -->
<svg version="1.1" id="Layer_2_1_" xmlns="http://www.w3.org/2000/svg" xmlns:xlink="http://www.w3.org/1999/xlink" x="0px" y="0px"
	 viewBox="0 0 20 20" style="enable-background:new 0 0 20 20;" xml:space="preserve">
<style type="text/css">
	.st0{fill:#FFFFFF;}
</style>
<g>
	<g>
		<path class="st0" d="M18.2,14.7c-0.1-0.4-0.5-0.7-1-1l-0.4-0.3c-0.5-0.4-0.9-0.6-1.5-1l-0.1-0.1c-0.5-0.3-0.8-0.5-1.1-0.5H14
			c-0.6,0-1,0.5-1.4,0.9c-0.1,0.1-0.1,0.1-0.2,0.2c-0.1,0.1-0.1,0.1-0.2,0.2c-0.1,0.1-0.5,0.5-0.6,0.5s-0.3-0.1-0.7-0.4
			c-1.4-0.9-2.4-2-3.3-3.4L7.4,9.5c-0.2-0.4-0.6-1-0.6-1.2c0-0.1,0.3-0.3,0.4-0.4s0.2-0.1,0.2-0.2l0.2-0.1C7.9,7.4,8.3,7,8.4,6.4
			c0-0.3-0.1-0.7-0.2-1.1L7.9,3.9c0-0.1-0.1-0.2-0.1-0.4c-0.2-0.9-0.4-1.7-0.9-2C6.7,1.4,6.5,1.3,6.1,1.3C5.7,1.2,5.1,1.2,5,1.2
			C3.7,1.4,2.5,3,2.2,3.8C1.7,4.9,1.7,6.4,2,7.4c0.3,1.2,0.9,2.4,1.5,3.5l0.1,0.2c1.3,2.4,3.3,4.5,5.4,5.8c1.3,0.8,2.9,1.7,4.1,1.9
			c1.6,0.2,3.5-0.5,4.3-1.5C17.8,16.8,18.4,15.4,18.2,14.7z"/>
	</g>
</g>
</svg>
